%YAML 1.1
%TAG !u! tag:unity3d.com,2011:
--- !u!78 &1
TagManager:
  serializedVersion: 2
  tags:
  - Canvas
  - CharacterPanel
  layers:
  - Default
  - TransparentFX
  - Ignore Raycast
  - 
  - Water
  - UI
  - 
  - 
  - choice1
  - choice2
  - choice3
  - 
  - 
  - 
  - 
  - 
  - 
  - 
  - 
  - 
  - 
  - 
  - 
  - 
  - 
  - 
  - 
  - 
  - 
  - 
  - 
  - 
  m_SortingLayers:
  - name: Default
    uniqueID: 0
    locked: 0
  - name: 1
    uniqueID: 1833464153
    locked: 0
  - name: 2
    uniqueID: 1785876907
    locked: 0
  - name: 3
    uniqueID: 4087915269
    locked: 0
  - name: Front
    uniqueID: 266012539
    locked: 0
